-------------------------------------------------------------------------------
Test set: TestSuite
-------------------------------------------------------------------------------
Tests run: 280, Failures: 51, Errors: 0, Skipped: 0, Time elapsed: 19,322.466 sec <<< FAILURE! - in TestSuite
TC52_orderCreationWithFedExAddress(wine.autotest.desktop.test.Desktop)  Time elapsed: 61.009 sec  <<< FAILURE!
java.lang.AssertionError: null
	at wine.autotest.desktop.test.Desktop.TC52_orderCreationWithFedExAddress(Desktop.java:1612)

TC53_verifyAddGiftWrappingToCartFunctionality(wine.autotest.desktop.test.Desktop)  Time elapsed: 139.868 sec  <<< FAILURE!
java.lang.AssertionError: null
	at wine.autotest.desktop.test.Desktop.TC53_verifyAddGiftWrappingToCartFunctionality(Desktop.java:1642)

TC62_verifyStateChangeDialog(wine.autotest.desktop.test.Desktop)  Time elapsed: 106.251 sec  <<< FAILURE!
java.lang.AssertionError: null
	at wine.autotest.desktop.test.Desktop.TC62_verifyStateChangeDialog(Desktop.java:1833)

TC76_orderCreationWithShippingMethodForExistingUser(wine.autotest.desktop.test.Desktop)  Time elapsed: 176.706 sec  <<< FAILURE!
java.lang.AssertionError: null
	at wine.autotest.desktop.test.Desktop.TC76_orderCreationWithShippingMethodForExistingUser(Desktop.java:2247)

TC92_InvalidEmailGiftRecipientValidation(wine.autotest.desktop.test.Desktop)  Time elapsed: 9.938 sec  <<< FAILURE!
java.lang.AssertionError: null
	at wine.autotest.desktop.test.Desktop.TC92_InvalidEmailGiftRecipientValidation(Desktop.java:2755)

TC96_preferredAdressFunctionality(wine.autotest.desktop.test.Desktop)  Time elapsed: 26.963 sec  <<< FAILURE!
java.lang.AssertionError: null
	at wine.autotest.desktop.test.Desktop.TC96_preferredAdressFunctionality(Desktop.java:2865)

TC98_verifyEditFunctionalityForHomeAddress(wine.autotest.desktop.test.Desktop)  Time elapsed: 91.474 sec  <<< FAILURE!
java.lang.AssertionError: null
	at wine.autotest.desktop.test.Desktop.TC98_verifyEditFunctionalityForHomeAddress(Desktop.java:2924)

TC110_verifyErrorMsgInvalidZipCodeForFedexeAddress(wine.autotest.desktop.test.Desktop)  Time elapsed: 103.92 sec  <<< FAILURE!
java.lang.AssertionError: null
	at wine.autotest.desktop.test.Desktop.TC110_verifyErrorMsgInvalidZipCodeForFedexeAddress(Desktop.java:3253)

TC115_aboutProffessionalandProductAttributeDescriptionInPIP(wine.autotest.desktop.test.Desktop)  Time elapsed: 34.053 sec  <<< FAILURE!
java.lang.AssertionError: null
	at wine.autotest.desktop.test.Desktop.TC115_aboutProffessionalandProductAttributeDescriptionInPIP(Desktop.java:3390)

TC116_errorMessageDisplayedForTheUserBelow21Years(wine.autotest.desktop.test.Desktop)  Time elapsed: 19.059 sec  <<< FAILURE!
java.lang.AssertionError: null
	at wine.autotest.desktop.test.Desktop.TC116_errorMessageDisplayedForTheUserBelow21Years(Desktop.java:3417)

TC127_collapsedDeliverySectionWhenThePreSaleItemIsAdded(wine.autotest.desktop.test.Desktop)  Time elapsed: 0.005 sec  <<< FAILURE!
java.lang.AssertionError: null
	at wine.autotest.desktop.test.Desktop.TC127_collapsedDeliverySectionWhenThePreSaleItemIsAdded(Desktop.java:3716)

TC128_removeCreditCard(wine.autotest.desktop.test.Desktop)  Time elapsed: 2.004 sec  <<< FAILURE!
java.lang.AssertionError: null
	at wine.autotest.desktop.test.Desktop.TC128_removeCreditCard(Desktop.java:3745)

TC135_VerifyGiftCardBalanceisGreaterthan0$isDisponPaymentSecofPickedSubscriptionFlow(wine.autotest.desktop.test.Desktop)  Time elapsed: 14.977 sec  <<< FAILURE!
java.lang.AssertionError: null
	at wine.autotest.desktop.test.Desktop.TC135_VerifyGiftCardBalanceisGreaterthan0$isDisponPaymentSecofPickedSubscriptionFlow(Desktop.java:8460)

TC150_multipleTrackingOrderNumber(wine.autotest.desktop.test.Desktop)  Time elapsed: 50.718 sec  <<< FAILURE!
java.lang.AssertionError: null
	at wine.autotest.desktop.test.Desktop.TC150_multipleTrackingOrderNumber(Desktop.java:4331)

TC153_giftBagIsDisplayedAsLineItemInShoppingCartPage(wine.autotest.desktop.test.Desktop)  Time elapsed: 87.299 sec  <<< FAILURE!
java.lang.AssertionError: null
	at wine.autotest.desktop.test.Desktop.TC153_giftBagIsDisplayedAsLineItemInShoppingCartPage(Desktop.java:4362)

TC156_verifyRatingOptionIsDisplayedInSliderBar(wine.autotest.desktop.test.Desktop)  Time elapsed: 9.327 sec  <<< FAILURE!
java.lang.AssertionError: null
	at wine.autotest.desktop.test.Desktop.TC156_verifyRatingOptionIsDisplayedInSliderBar(Desktop.java:4443)

TC161_limitReached(wine.autotest.desktop.test.Desktop)  Time elapsed: 1.38 sec  <<< FAILURE!
java.lang.AssertionError: null
	at wine.autotest.desktop.test.Desktop.TC161_limitReached(Desktop.java:4554)

TC164_verifyTheFourAddressAndCreditcards(wine.autotest.desktop.test.Desktop)  Time elapsed: 8.878 sec  <<< FAILURE!
java.lang.AssertionError: null
	at wine.autotest.desktop.test.Desktop.TC164_verifyTheFourAddressAndCreditcards(Desktop.java:4638)

TC166_DoBFormatInUserProfile(wine.autotest.desktop.test.Desktop)  Time elapsed: 42.05 sec  <<< FAILURE!
java.lang.AssertionError: null
	at wine.autotest.desktop.test.Desktop.TC166_DoBFormatInUserProfile(Desktop.java:4694)

TC167_verifyMilitaryOfficeBillingAddress(wine.autotest.desktop.test.Desktop)  Time elapsed: 38.098 sec  <<< FAILURE!
java.lang.AssertionError: null
	at wine.autotest.desktop.test.Desktop.TC167_verifyMilitaryOfficeBillingAddress(Desktop.java:4723)

TC171_verifyLocalPickupInformationDisplayedInCollapsedDeliverySection(wine.autotest.desktop.test.Desktop)  Time elapsed: 84.104 sec  <<< FAILURE!
java.lang.AssertionError: null
	at wine.autotest.desktop.test.Desktop.TC171_verifyLocalPickupInformationDisplayedInCollapsedDeliverySection(Desktop.java:4833)

TC172_verifyFedexDisplaysProperGoogleAdresses(wine.autotest.desktop.test.Desktop)  Time elapsed: 33.937 sec  <<< FAILURE!
java.lang.AssertionError: null
	at wine.autotest.desktop.test.Desktop.TC172_verifyFedexDisplaysProperGoogleAdresses(Desktop.java:4862)

TC173_verifyBillingPhoneNumberIsRequiredField(wine.autotest.desktop.test.Desktop)  Time elapsed: 12.683 sec  <<< FAILURE!
java.lang.AssertionError: null
	at wine.autotest.desktop.test.Desktop.TC173_verifyBillingPhoneNumberIsRequiredField(Desktop.java:4892)

TC175_verifyAboutProfRatingsHeaderisDispInProf(wine.autotest.desktop.test.Desktop)  Time elapsed: 23.939 sec  <<< FAILURE!
java.lang.AssertionError: null
	at wine.autotest.desktop.test.Desktop.TC175_verifyAboutProfRatingsHeaderisDispInProf(Desktop.java:4948)

TC178_verifyAddToMyWineFunctionality(wine.autotest.desktop.test.Desktop)  Time elapsed: 54.994 sec  <<< FAILURE!
java.lang.AssertionError: null
	at wine.autotest.desktop.test.Desktop.TC178_verifyAddToMyWineFunctionality(Desktop.java:5030)

TC179_verifyProductsAreRemovedInMyWine(wine.autotest.desktop.test.Desktop)  Time elapsed: 50.004 sec  <<< FAILURE!
java.lang.AssertionError: null
	at wine.autotest.desktop.test.Desktop.TC179_verifyProductsAreRemovedInMyWine(Desktop.java:5058)

TC182_verifyMyWineSignInNEditLinkForGiftMessage(wine.autotest.desktop.test.Desktop)  Time elapsed: 3.252 sec  <<< FAILURE!
java.lang.AssertionError: null
	at wine.autotest.desktop.test.Desktop.TC182_verifyMyWineSignInNEditLinkForGiftMessage(Desktop.java:5146)

TC187_VerifyPickUpFormIsNtDispForDiffBillingAddr(wine.autotest.desktop.test.Desktop)  Time elapsed: 57.393 sec  <<< FAILURE!
java.lang.AssertionError: null
	at wine.autotest.desktop.test.Desktop.TC187_VerifyPickUpFormIsNtDispForDiffBillingAddr(Desktop.java:5285)

TC190_VerifyAddToCartAlertIsDispWhenProdIsAdded(wine.autotest.desktop.test.Desktop)  Time elapsed: 35.609 sec  <<< FAILURE!
java.lang.AssertionError: null
	at wine.autotest.desktop.test.Desktop.TC190_VerifyAddToCartAlertIsDispWhenProdIsAdded(Desktop.java:5371)

TC198_VerifySaveForLaterOnClickingContinueShipToKY(wine.autotest.desktop.test.Desktop)  Time elapsed: 46.799 sec  <<< FAILURE!
java.lang.AssertionError: null
	at wine.autotest.desktop.test.Desktop.TC198_VerifySaveForLaterOnClickingContinueShipToKY(Desktop.java:5591)

TC200_verifyCustomerShipstateRevertedToPreviousStateInsideShoppingCart(wine.autotest.desktop.test.Desktop)  Time elapsed: 51.47 sec  <<< FAILURE!
java.lang.AssertionError: null
	at wine.autotest.desktop.test.Desktop.TC200_verifyCustomerShipstateRevertedToPreviousStateInsideShoppingCart(Desktop.java:5648)

TC201_verifyCustomerShipstateRevertedToPreviousStateOutsideShoppingCart(wine.autotest.desktop.test.Desktop)  Time elapsed: 95.107 sec  <<< FAILURE!
java.lang.AssertionError: null
	at wine.autotest.desktop.test.Desktop.TC201_verifyCustomerShipstateRevertedToPreviousStateOutsideShoppingCart(Desktop.java:5677)

TC206_reportingAddressPopUpforNewPickUpLocation(wine.autotest.desktop.test.Desktop)  Time elapsed: 51.953 sec  <<< FAILURE!
java.lang.AssertionError: null
	at wine.autotest.desktop.test.Desktop.TC206_reportingAddressPopUpforNewPickUpLocation(Desktop.java:5815)

TC209_verifyAddToMyWineFunctionalityinPIP(wine.autotest.desktop.test.Desktop)  Time elapsed: 69.869 sec  <<< FAILURE!
java.lang.AssertionError: null
	at wine.autotest.desktop.test.Desktop.TC209_verifyAddToMyWineFunctionalityinPIP(Desktop.java:5900)

TC210_verifyAddToMyWineFunctionalityinPIPforrating(wine.autotest.desktop.test.Desktop)  Time elapsed: 65.118 sec  <<< FAILURE!
java.lang.AssertionError: null
	at wine.autotest.desktop.test.Desktop.TC210_verifyAddToMyWineFunctionalityinPIPforrating(Desktop.java:5928)

TC211_VerifySiginModelforMyWineinListandPIP(wine.autotest.desktop.test.Desktop)  Time elapsed: 36.086 sec  <<< FAILURE!
java.lang.AssertionError: null
	at wine.autotest.desktop.test.Desktop.TC211_VerifySiginModelforMyWineinListandPIP(Desktop.java:5954)

TC208_VerifyUserNtabletoSelectSaturdayForShippinginHawaii(wine.autotest.desktop.test.Desktop)  Time elapsed: 13.012 sec  <<< FAILURE!
java.lang.AssertionError: null
	at wine.autotest.desktop.test.Desktop.TC208_VerifyUserNtabletoSelectSaturdayForShippinginHawaii(Desktop.java:5870)

TC216_VerifyRecommendedProductsAfterRatingTheStars(wine.autotest.desktop.test.Desktop)  Time elapsed: 60.681 sec  <<< FAILURE!
java.lang.AssertionError: null
	at wine.autotest.desktop.test.Desktop.TC216_VerifyRecommendedProductsAfterRatingTheStars(Desktop.java:6096)

TC218_verifyTheBehaviorOfTheContinueButtonIfAddressNtSelectedInRecipientPage(wine.autotest.desktop.test.Desktop)  Time elapsed: 44.563 sec  <<< FAILURE!
java.lang.AssertionError: null
	at wine.autotest.desktop.test.Desktop.TC218_verifyTheBehaviorOfTheContinueButtonIfAddressNtSelectedInRecipientPage(Desktop.java:6152)

TC223_verifyShippinAndHandalingChargesAppliedToTheNnStewardshipUser(wine.autotest.desktop.test.Desktop)  Time elapsed: 14.794 sec  <<< FAILURE!
java.lang.AssertionError: null
	at wine.autotest.desktop.test.Desktop.TC223_verifyShippinAndHandalingChargesAppliedToTheNnStewardshipUser(Desktop.java:6299)

TC225_verifyGoBackButtonIsDispInFedexWindow(wine.autotest.desktop.test.Desktop)  Time elapsed: 114.206 sec  <<< FAILURE!
java.lang.AssertionError: null
	at wine.autotest.desktop.test.Desktop.TC225_verifyGoBackButtonIsDispInFedexWindow(Desktop.java:6359)

TC234_ValidateTheSubscriptionFlowForLocalPickupAddress(wine.autotest.desktop.test.Desktop)  Time elapsed: 76.106 sec  <<< FAILURE!
java.lang.AssertionError: null
	at wine.autotest.desktop.test.Desktop.TC234_ValidateTheSubscriptionFlowForLocalPickupAddress(Desktop.java:6642)

TC236_VerifyGiftCardWithZeroBalanceIsRemovedInPaymentSection(wine.autotest.desktop.test.Desktop)  Time elapsed: 36.483 sec  <<< FAILURE!
java.lang.AssertionError: null
	at wine.autotest.desktop.test.Desktop.TC236_VerifyGiftCardWithZeroBalanceIsRemovedInPaymentSection(Desktop.java:6696)

TC240_ValidateCompassEnrollmentFlowforWhiteWine(wine.autotest.desktop.test.Desktop)  Time elapsed: 43.179 sec  <<< FAILURE!
java.lang.AssertionError: null
	at wine.autotest.desktop.test.Desktop.TC240_ValidateCompassEnrollmentFlowforWhiteWine(Desktop.java:6805)

TC243_VerifyChangeDelvyDateandRecipientAddressinPickedSettingpage(wine.autotest.desktop.test.Desktop)  Time elapsed: 106.245 sec  <<< FAILURE!
java.lang.AssertionError: null
	at wine.autotest.desktop.test.Desktop.TC243_VerifyChangeDelvyDateandRecipientAddressinPickedSettingpage(Desktop.java:6890)

TC245_VerifyContentforYourSubscriptioninPickedSetting(wine.autotest.desktop.test.Desktop)  Time elapsed: 70.233 sec  <<< FAILURE!
java.lang.AssertionError: null
	at wine.autotest.desktop.test.Desktop.TC245_VerifyContentforYourSubscriptioninPickedSetting(Desktop.java:6944)

TC254_VerifyRescheduleSubscriptioninPickedSetting(wine.autotest.desktop.test.Desktop)  Time elapsed: 166.551 sec  <<< FAILURE!
java.lang.AssertionError: null
	at wine.autotest.desktop.test.Desktop.TC254_VerifyRescheduleSubscriptioninPickedSetting(Desktop.java:7200)

TC261_verifyDescriptionDisplayedInRecipientSectionWhenSelectLocalPickup(wine.autotest.desktop.test.Desktop)  Time elapsed: 2.516 sec  <<< FAILURE!
java.lang.AssertionError: null
	at wine.autotest.desktop.test.Desktop.TC261_verifyDescriptionDisplayedInRecipientSectionWhenSelectLocalPickup(Desktop.java:7410)

TC264_WeatherHoldOptionforGreater300(wine.autotest.desktop.test.Desktop)  Time elapsed: 48.427 sec  <<< FAILURE!
java.lang.AssertionError: null
	at wine.autotest.desktop.test.Desktop.TC264_WeatherHoldOptionforGreater300(Desktop.java:7532)

TC268_VerifyUserAbletoAddSpritsviaPIP(wine.autotest.desktop.test.Desktop)  Time elapsed: 72.534 sec  <<< FAILURE!
java.lang.AssertionError: null
	at wine.autotest.desktop.test.Desktop.TC268_VerifyUserAbletoAddSpritsviaPIP(Desktop.java:7648)

TC279_removePromoCodeFromTheSubscriptionModel(wine.autotest.desktop.test.Desktop)  Time elapsed: 1,176.077 sec  <<< FAILURE!
java.lang.AssertionError: null
	at wine.autotest.desktop.test.Desktop.TC279_removePromoCodeFromTheSubscriptionModel(Desktop.java:7952)

